Taller de Tidymodels
…
grid_max_entropy: propondrá una combinación de hiperpárametros que garantice que se cubrirá todo el espectro, con fin de evitar mínimos locales en la conversión de algoritmos.

grid_latin_hypercube: propondrá una matriz.

10.2.1. Grid_regular()

Grid_regular hará las combinaciones acorde al rango que le hayamos dado. Por defecto hace la combinación entre el mínimo, el medio y el máximo de cada valor.

grid_regular(
  mtry(range  = c(2, 10)),
  min_n(range = c(2, 10)),
  trees(range = c(2, 10)))

# A tibble: 27 × 3
    mtry min_n trees
   <int> <int> <int>
 1     2     2     2
 2     6     2     2
 3    10     2     2
 4     2     6     2
 5     6     6     2
 6    10     6     2
 7     2    10     2
 8     6    10     2
 9    10    10     2
10     2     2     6
# ℹ 17 more rows

10.2.1. Grid_regular()

Grid_regular hará las combinaciones acorde al rango que le hayamos dado. Por defecto hace la combinación entre el mínimo, el medio y el máximo de cada valor.

grid_regular(
  mtry(range  = c(2, 10)),
  min_n(range = c(2, 10)),
  trees(range = c(2, 10)),
  levels = 4) # Podemos ampliar con el parámetro levels: Ahora el mínimo será el cuantil 33 y el máximo el cuantil 66.

# A tibble: 64 × 3
    mtry min_n trees
   <int> <int> <int>
 1     2     2     2
 2     4     2     2
 3     7     2     2
 4    10     2     2
 5     2     4     2
 6     4     4     2
 7     7     4     2
 8    10     4     2
 9     2     7     2
10     4     7     2
# ℹ 54 more rows
…
